<?xml version="1.0" standalone="no"?>
 <!DOCTYPE svg PUBLIC "-//W3C//DTD SVG 1.1//EN" 
 "http://www.w3.org/Graphics/SVG/1.1/DTD/svg11.dtd"> 
<svg xmlns="http://www.w3.org/2000/svg" version="1.1" 
    width="2.8829cm" height="7.28218cm" viewBox="0 0 11350 28670 ">
<title>SVG Picture created as pinguino_4550-F_Mask.svg date 2015/10/08 05:44:36 </title>
  <desc>Picture generated by PCBNEW </desc>
<g style="fill:#000000; fill-opacity:1;stroke:#000000; stroke-opacity:1;
stroke-linecap:round; stroke-linejoin:round; "
 transform="translate(0 0) scale(1 1)">
</g>
<g style="fill:#000000; fill-opacity:0.0; 
stroke:#000000; stroke-width:-0.000393701; stroke-opacity:1; 
stroke-linecap:round; stroke-linejoin:round;">
</g>
<g style="fill:#000000; fill-opacity:0.0; 
stroke:#000000; stroke-width:0; stroke-opacity:1; 
stroke-linecap:round; stroke-linejoin:round;">
</g>
<g style="fill:#000000; fill-opacity:1.0; 
stroke:#000000; stroke-width:0; stroke-opacity:1; 
stroke-linecap:round; stroke-linejoin:round;">
<polyline style="fill-rule:evenodd;"
points="8405,26561
8405,27702
7854,27702
7854,26561
8405,26561
" /> 
<polyline style="fill-rule:evenodd;"
points="7224,26561
7224,27702
6673,27702
6673,26561
7224,26561
" /> 
<polyline style="fill-rule:evenodd;"
points="5830,9753
6972,9753
6972,10305
5830,10305
5830,9753
" /> 
<polyline style="fill-rule:evenodd;"
points="5830,10935
6972,10935
6972,11486
5830,11486
5830,10935
" /> 
<polyline style="fill-rule:evenodd;"
points="3972,9753
5114,9753
5114,10305
3972,10305
3972,9753
" /> 
<polyline style="fill-rule:evenodd;"
points="3972,10935
5114,10935
5114,11486
3972,11486
3972,10935
" /> 
<circle cx="9539.37" cy="8131.89" r="374.24" /> 
</g>
<g style="fill:#000000; fill-opacity:1.0; 
stroke:#000000; stroke-width:39.3701; stroke-opacity:1; 
stroke-linecap:round; stroke-linejoin:round;">
</g>
<g style="fill:#000000; fill-opacity:1.0; 
stroke:#000000; stroke-width:0; stroke-opacity:1; 
stroke-linecap:round; stroke-linejoin:round;">
<circle cx="8539.37" cy="8131.89" r="374.24" /> 
</g>
<g style="fill:#000000; fill-opacity:1.0; 
stroke:#000000; stroke-width:39.3701; stroke-opacity:1; 
stroke-linecap:round; stroke-linejoin:round;">
</g>
<g style="fill:#000000; fill-opacity:1.0; 
stroke:#000000; stroke-width:0; stroke-opacity:1; 
stroke-linecap:round; stroke-linejoin:round;">
<polyline style="fill-rule:evenodd;"
points="4405,26561
4405,27702
3854,27702
3854,26561
4405,26561
" /> 
<polyline style="fill-rule:evenodd;"
points="3224,26561
3224,27702
2673,27702
2673,26561
3224,26561
" /> 
<polyline style="fill-rule:evenodd;"
points="10011,5679
10011,6584
9066,6584
9066,5679
10011,5679
" /> 
<circle cx="9539.37" cy="5131.89" r="452.756" /> 
</g>
<g style="fill:#000000; fill-opacity:1.0; 
stroke:#000000; stroke-width:39.3701; stroke-opacity:1; 
stroke-linecap:round; stroke-linejoin:round;">
</g>
<g style="fill:#000000; fill-opacity:1.0; 
stroke:#000000; stroke-width:0; stroke-opacity:1; 
stroke-linecap:round; stroke-linejoin:round;">
<polyline style="fill-rule:evenodd;"
points="10011,2679
10011,3584
9066,3584
9066,2679
10011,2679
" /> 
<circle cx="9539.37" cy="2131.89" r="452.756" /> 
</g>
<g style="fill:#000000; fill-opacity:1.0; 
stroke:#000000; stroke-width:39.3701; stroke-opacity:1; 
stroke-linecap:round; stroke-linejoin:round;">
</g>
<g style="fill:#000000; fill-opacity:1.0; 
stroke:#000000; stroke-width:0; stroke-opacity:1; 
stroke-linecap:round; stroke-linejoin:round;">
<circle cx="4039.37" cy="6131.89" r="378.74" /> 
</g>
<g style="fill:#000000; fill-opacity:1.0; 
stroke:#000000; stroke-width:39.3701; stroke-opacity:1; 
stroke-linecap:round; stroke-linejoin:round;">
</g>
<g style="fill:#000000; fill-opacity:1.0; 
stroke:#000000; stroke-width:0; stroke-opacity:1; 
stroke-linecap:round; stroke-linejoin:round;">
<circle cx="3039.37" cy="6131.89" r="378.74" /> 
</g>
<g style="fill:#000000; fill-opacity:1.0; 
stroke:#000000; stroke-width:39.3701; stroke-opacity:1; 
stroke-linecap:round; stroke-linejoin:round;">
</g>
<g style="fill:#000000; fill-opacity:1.0; 
stroke:#000000; stroke-width:0; stroke-opacity:1; 
stroke-linecap:round; stroke-linejoin:round;">
<circle cx="3039.37" cy="5344.89" r="378.74" /> 
</g>
<g style="fill:#000000; fill-opacity:1.0; 
stroke:#000000; stroke-width:39.3701; stroke-opacity:1; 
stroke-linecap:round; stroke-linejoin:round;">
</g>
<g style="fill:#000000; fill-opacity:1.0; 
stroke:#000000; stroke-width:0; stroke-opacity:1; 
stroke-linecap:round; stroke-linejoin:round;">
<circle cx="4039.37" cy="5344.89" r="378.74" /> 
</g>
<g style="fill:#000000; fill-opacity:1.0; 
stroke:#000000; stroke-width:39.3701; stroke-opacity:1; 
stroke-linecap:round; stroke-linejoin:round;">
</g>
<g style="fill:#000000; fill-opacity:1.0; 
stroke:#000000; stroke-width:0; stroke-opacity:1; 
stroke-linecap:round; stroke-linejoin:round;">
<circle cx="5901.37" cy="4281.89" r="610.24" /> 
</g>
<g style="fill:#000000; fill-opacity:1.0; 
stroke:#000000; stroke-width:39.3701; stroke-opacity:1; 
stroke-linecap:round; stroke-linejoin:round;">
</g>
<g style="fill:#000000; fill-opacity:1.0; 
stroke:#000000; stroke-width:0; stroke-opacity:1; 
stroke-linecap:round; stroke-linejoin:round;">
<circle cx="1177.37" cy="4281.89" r="610.24" /> 
</g>
<g style="fill:#000000; fill-opacity:1.0; 
stroke:#000000; stroke-width:39.3701; stroke-opacity:1; 
stroke-linecap:round; stroke-linejoin:round;">
</g>
<g style="fill:#000000; fill-opacity:1.0; 
stroke:#000000; stroke-width:0; stroke-opacity:1; 
stroke-linecap:round; stroke-linejoin:round;">
<polyline style="fill-rule:evenodd;"
points="3458,8610
2620,8610
2620,7653
3458,7653
3458,8610
" /> 
</g>
<g style="fill:#000000; fill-opacity:1.0; 
stroke:#000000; stroke-width:837.48; stroke-opacity:1; 
stroke-linecap:round; stroke-linejoin:round;">
</g>
<g style="fill:#000000; fill-opacity:0.0; 
stroke:#000000; stroke-width:837.48; stroke-opacity:1; 
stroke-linecap:round; stroke-linejoin:round;">
<path d="M4039 8191
L4039 8071
" />
<path d="M5039 8191
L5039 8071
" />
</g>
<g style="fill:#000000; fill-opacity:0.0; 
stroke:#000000; stroke-width:0; stroke-opacity:1; 
stroke-linecap:round; stroke-linejoin:round;">
</g>
<g style="fill:#000000; fill-opacity:1.0; 
stroke:#000000; stroke-width:0; stroke-opacity:1; 
stroke-linecap:round; stroke-linejoin:round;">
<polyline style="fill-rule:evenodd;"
points="10518,25713
10518,26550
9560,26550
9560,25713
10518,25713
" /> 
</g>
<g style="fill:#000000; fill-opacity:1.0; 
stroke:#000000; stroke-width:837.48; stroke-opacity:1; 
stroke-linecap:round; stroke-linejoin:round;">
</g>
<g style="fill:#000000; fill-opacity:0.0; 
stroke:#000000; stroke-width:837.48; stroke-opacity:1; 
stroke-linecap:round; stroke-linejoin:round;">
<path d="M10099 25131
L9979 25131
" />
<path d="M10099 24131
L9979 24131
" />
<path d="M10099 23131
L9979 23131
" />
<path d="M10099 22131
L9979 22131
" />
<path d="M10099 21131
L9979 21131
" />
<path d="M10099 20131
L9979 20131
" />
<path d="M10099 19131
L9979 19131
" />
<path d="M10099 18131
L9979 18131
" />
<path d="M10099 17131
L9979 17131
" />
<path d="M10099 16131
L9979 16131
" />
<path d="M10099 15131
L9979 15131
" />
<path d="M10099 14131
L9979 14131
" />
<path d="M10099 13131
L9979 13131
" />
<path d="M10099 12131
L9979 12131
" />
<path d="M10099 11131
L9979 11131
" />
<path d="M10099 10131
L9979 10131
" />
</g>
<g style="fill:#000000; fill-opacity:0.0; 
stroke:#000000; stroke-width:0; stroke-opacity:1; 
stroke-linecap:round; stroke-linejoin:round;">
</g>
<g style="fill:#000000; fill-opacity:1.0; 
stroke:#000000; stroke-width:0; stroke-opacity:1; 
stroke-linecap:round; stroke-linejoin:round;">
<polyline style="fill-rule:evenodd;"
points="560,10550
560,9713
1518,9713
1518,10550
560,10550
" /> 
</g>
<g style="fill:#000000; fill-opacity:1.0; 
stroke:#000000; stroke-width:837.48; stroke-opacity:1; 
stroke-linecap:round; stroke-linejoin:round;">
</g>
<g style="fill:#000000; fill-opacity:0.0; 
stroke:#000000; stroke-width:837.48; stroke-opacity:1; 
stroke-linecap:round; stroke-linejoin:round;">
<path d="M979 11131
L1099 11131
" />
<path d="M979 12131
L1099 12131
" />
<path d="M979 13131
L1099 13131
" />
<path d="M979 14131
L1099 14131
" />
<path d="M979 15131
L1099 15131
" />
<path d="M979 16131
L1099 16131
" />
<path d="M979 17131
L1099 17131
" />
<path d="M979 18131
L1099 18131
" />
<path d="M979 19131
L1099 19131
" />
<path d="M979 20131
L1099 20131
" />
<path d="M979 21131
L1099 21131
" />
<path d="M979 22131
L1099 22131
" />
<path d="M979 23131
L1099 23131
" />
<path d="M979 24131
L1099 24131
" />
<path d="M979 25131
L1099 25131
" />
<path d="M979 26131
L1099 26131
" />
</g>
<g style="fill:#000000; fill-opacity:0.0; 
stroke:#000000; stroke-width:0; stroke-opacity:1; 
stroke-linecap:round; stroke-linejoin:round;">
</g>
<g style="fill:#000000; fill-opacity:1.0; 
stroke:#000000; stroke-width:0; stroke-opacity:1; 
stroke-linecap:round; stroke-linejoin:round;">
<polyline style="fill-rule:evenodd;"
points="4712,27545
4712,26718
5224,26718
5224,27545
4712,27545
" /> 
<polyline style="fill-rule:evenodd;"
points="5854,27545
5854,26718
6366,26718
6366,27545
5854,27545
" /> 
<polyline style="fill-rule:evenodd;"
points="7952,6458
7125,6458
7125,5946
7952,5946
7952,6458
" /> 
<polyline style="fill-rule:evenodd;"
points="7952,5316
7125,5316
7125,4805
7952,4805
7952,5316
" /> 
<polyline style="fill-rule:evenodd;"
points="7952,3458
7125,3458
7125,2946
7952,2946
7952,3458
" /> 
<polyline style="fill-rule:evenodd;"
points="7952,2316
7125,2316
7125,1805
7952,1805
7952,2316
" /> 
<circle cx="4039.37" cy="24631.9" r="353.74" /> 
</g>
<g style="fill:#000000; fill-opacity:1.0; 
stroke:#000000; stroke-width:39.3701; stroke-opacity:1; 
stroke-linecap:round; stroke-linejoin:round;">
</g>
<g style="fill:#000000; fill-opacity:1.0; 
stroke:#000000; stroke-width:0; stroke-opacity:1; 
stroke-linecap:round; stroke-linejoin:round;">
<circle cx="4039.37" cy="22631.9" r="353.74" /> 
</g>
<g style="fill:#000000; fill-opacity:1.0; 
stroke:#000000; stroke-width:39.3701; stroke-opacity:1; 
stroke-linecap:round; stroke-linejoin:round;">
</g>
<g style="fill:#000000; fill-opacity:1.0; 
stroke:#000000; stroke-width:0; stroke-opacity:1; 
stroke-linecap:round; stroke-linejoin:round;">
<circle cx="7039.37" cy="24631.9" r="353.74" /> 
</g>
<g style="fill:#000000; fill-opacity:1.0; 
stroke:#000000; stroke-width:39.3701; stroke-opacity:1; 
stroke-linecap:round; stroke-linejoin:round;">
</g>
<g style="fill:#000000; fill-opacity:1.0; 
stroke:#000000; stroke-width:0; stroke-opacity:1; 
stroke-linecap:round; stroke-linejoin:round;">
<circle cx="7039.37" cy="22631.9" r="353.74" /> 
</g>
<g style="fill:#000000; fill-opacity:1.0; 
stroke:#000000; stroke-width:39.3701; stroke-opacity:1; 
stroke-linecap:round; stroke-linejoin:round;">
</g>
<g style="fill:#000000; fill-opacity:1.0; 
stroke:#000000; stroke-width:0; stroke-opacity:1; 
stroke-linecap:round; stroke-linejoin:round;">
<polyline style="fill-rule:evenodd;"
points="2921,17244
2921,16870
3669,16870
3669,17244
2921,17244
" /> 
<polyline style="fill-rule:evenodd;"
points="2921,17559
2921,17185
3669,17185
3669,17559
2921,17559
" /> 
<polyline style="fill-rule:evenodd;"
points="2921,17874
2921,17500
3669,17500
3669,17874
2921,17874
" /> 
<polyline style="fill-rule:evenodd;"
points="2921,18188
2921,17814
3669,17814
3669,18188
2921,18188
" /> 
<polyline style="fill-rule:evenodd;"
points="2921,18503
2921,18129
3669,18129
3669,18503
2921,18503
" /> 
<polyline style="fill-rule:evenodd;"
points="2921,18818
2921,18444
3669,18444
3669,18818
2921,18818
" /> 
<polyline style="fill-rule:evenodd;"
points="2921,19133
2921,18759
3669,18759
3669,19133
2921,19133
" /> 
<polyline style="fill-rule:evenodd;"
points="2921,19448
2921,19074
3669,19074
3669,19448
2921,19448
" /> 
<polyline style="fill-rule:evenodd;"
points="2921,19763
2921,19389
3669,19389
3669,19763
2921,19763
" /> 
<polyline style="fill-rule:evenodd;"
points="2921,20078
2921,19704
3669,19704
3669,20078
2921,20078
" /> 
<polyline style="fill-rule:evenodd;"
points="2921,20393
2921,20019
3669,20019
3669,20393
2921,20393
" /> 
<polyline style="fill-rule:evenodd;"
points="4151,21250
3777,21250
3777,20501
4151,20501
4151,21250
" /> 
<polyline style="fill-rule:evenodd;"
points="4466,21250
4092,21250
4092,20501
4466,20501
4466,21250
" /> 
<polyline style="fill-rule:evenodd;"
points="4781,21250
4407,21250
4407,20501
4781,20501
4781,21250
" /> 
<polyline style="fill-rule:evenodd;"
points="5096,21250
4722,21250
4722,20501
5096,20501
5096,21250
" /> 
<polyline style="fill-rule:evenodd;"
points="5411,21250
5037,21250
5037,20501
5411,20501
5411,21250
" /> 
<polyline style="fill-rule:evenodd;"
points="5726,21250
5352,21250
5352,20501
5726,20501
5726,21250
" /> 
<polyline style="fill-rule:evenodd;"
points="6041,21250
5667,21250
5667,20501
6041,20501
6041,21250
" /> 
<polyline style="fill-rule:evenodd;"
points="6356,21250
5982,21250
5982,20501
6356,20501
6356,21250
" /> 
<polyline style="fill-rule:evenodd;"
points="6671,21250
6297,21250
6297,20501
6671,20501
6671,21250
" /> 
<polyline style="fill-rule:evenodd;"
points="6986,21250
6612,21250
6612,20501
6986,20501
6986,21250
" /> 
<polyline style="fill-rule:evenodd;"
points="7301,21250
6927,21250
6927,20501
7301,20501
7301,21250
" /> 
<polyline style="fill-rule:evenodd;"
points="7409,20393
7409,20019
8157,20019
8157,20393
7409,20393
" /> 
<polyline style="fill-rule:evenodd;"
points="7409,20078
7409,19704
8157,19704
8157,20078
7409,20078
" /> 
<polyline style="fill-rule:evenodd;"
points="7409,19763
7409,19389
8157,19389
8157,19763
7409,19763
" /> 
<polyline style="fill-rule:evenodd;"
points="7409,19448
7409,19074
8157,19074
8157,19448
7409,19448
" /> 
<polyline style="fill-rule:evenodd;"
points="7409,19133
7409,18759
8157,18759
8157,19133
7409,19133
" /> 
<polyline style="fill-rule:evenodd;"
points="7409,18818
7409,18444
8157,18444
8157,18818
7409,18818
" /> 
<polyline style="fill-rule:evenodd;"
points="7409,18503
7409,18129
8157,18129
8157,18503
7409,18503
" /> 
<polyline style="fill-rule:evenodd;"
points="7409,18188
7409,17814
8157,17814
8157,18188
7409,18188
" /> 
<polyline style="fill-rule:evenodd;"
points="7409,17874
7409,17500
8157,17500
8157,17874
7409,17874
" /> 
<polyline style="fill-rule:evenodd;"
points="7409,17559
7409,17185
8157,17185
8157,17559
7409,17559
" /> 
<polyline style="fill-rule:evenodd;"
points="7409,17244
7409,16870
8157,16870
8157,17244
7409,17244
" /> 
<polyline style="fill-rule:evenodd;"
points="7301,16761
6927,16761
6927,16013
7301,16013
7301,16761
" /> 
<polyline style="fill-rule:evenodd;"
points="6986,16761
6612,16761
6612,16013
6986,16013
6986,16761
" /> 
<polyline style="fill-rule:evenodd;"
points="6671,16761
6297,16761
6297,16013
6671,16013
6671,16761
" /> 
<polyline style="fill-rule:evenodd;"
points="6356,16761
5982,16761
5982,16013
6356,16013
6356,16761
" /> 
<polyline style="fill-rule:evenodd;"
points="6041,16761
5667,16761
5667,16013
6041,16013
6041,16761
" /> 
<polyline style="fill-rule:evenodd;"
points="5726,16761
5352,16761
5352,16013
5726,16013
5726,16761
" /> 
<polyline style="fill-rule:evenodd;"
points="5411,16761
5037,16761
5037,16013
5411,16013
5411,16761
" /> 
<polyline style="fill-rule:evenodd;"
points="5096,16761
4722,16761
4722,16013
5096,16013
5096,16761
" /> 
<polyline style="fill-rule:evenodd;"
points="4781,16761
4407,16761
4407,16013
4781,16013
4781,16761
" /> 
<polyline style="fill-rule:evenodd;"
points="4466,16761
4092,16761
4092,16013
4466,16013
4466,16761
" /> 
<polyline style="fill-rule:evenodd;"
points="4151,16761
3777,16761
3777,16013
4151,16013
4151,16761
" /> 
<circle cx="6480.69" cy="13722.4" r="374.24" /> 
</g>
<g style="fill:#000000; fill-opacity:1.0; 
stroke:#000000; stroke-width:39.3701; stroke-opacity:1; 
stroke-linecap:round; stroke-linejoin:round;">
</g>
<g style="fill:#000000; fill-opacity:1.0; 
stroke:#000000; stroke-width:0; stroke-opacity:1; 
stroke-linecap:round; stroke-linejoin:round;">
<circle cx="4558.69" cy="13722.4" r="374.24" /> 
</g>
<g style="fill:#000000; fill-opacity:1.0; 
stroke:#000000; stroke-width:39.3701; stroke-opacity:1; 
stroke-linecap:round; stroke-linejoin:round;">
</g>
<g style="fill:#000000; fill-opacity:1.0; 
stroke:#000000; stroke-width:0; stroke-opacity:1; 
stroke-linecap:round; stroke-linejoin:round;">
<circle cx="10039.4" cy="27631.9" r="472.24" /> 
</g>
<g style="fill:#000000; fill-opacity:1.0; 
stroke:#000000; stroke-width:39.3701; stroke-opacity:1; 
stroke-linecap:round; stroke-linejoin:round;">
</g> 
</svg>
