<?xml version="1.0" standalone="no"?>
 <!DOCTYPE svg PUBLIC "-//W3C//DTD SVG 1.1//EN" 
 "http://www.w3.org/Graphics/SVG/1.1/DTD/svg11.dtd"> 
<svg xmlns="http://www.w3.org/2000/svg" version="1.1" 
    width="27.94cm" height="21.59cm" viewBox="0 0 110000 85000 ">
<title>SVG Picture created as pinguino_4550-B.Mask.svg date 2016/01/25 13:45:43 </title>
  <desc>Picture generated by PCBNEW </desc>
<g style="fill:#000000; fill-opacity:1;stroke:#000000; stroke-opacity:1;
stroke-linecap:round; stroke-linejoin:round; "
 transform="translate(0 0) scale(1 1)">
</g>
<g style="fill:#000000; fill-opacity:0.0; 
stroke:#000000; stroke-width:-0.000393701; stroke-opacity:1; 
stroke-linecap:round; stroke-linejoin:round;">
</g>
<g style="fill:#000000; fill-opacity:0.0; 
stroke:#000000; stroke-width:39.3701; stroke-opacity:1; 
stroke-linecap:round; stroke-linejoin:round;">
</g>
<g style="fill:#000000; fill-opacity:0.0; 
stroke:#000000; stroke-width:59.0551; stroke-opacity:1; 
stroke-linecap:round; stroke-linejoin:round;">
<rect x="62755.9" y="67677.2" width="42519.7" height="12598.4" rx="0" />
</g>
<g style="fill:#000000; fill-opacity:0.0; 
stroke:#000000; stroke-width:39.3701; stroke-opacity:1; 
stroke-linecap:round; stroke-linejoin:round;">
</g>
<g style="fill:#000000; fill-opacity:0.0; 
stroke:#000000; stroke-width:59.0551; stroke-opacity:1; 
stroke-linecap:round; stroke-linejoin:round;">
<rect x="3937.01" y="3937.01" width="102126" height="77126" rx="0" />
</g>
<g style="fill:#000000; fill-opacity:0.0; 
stroke:#000000; stroke-width:39.3701; stroke-opacity:1; 
stroke-linecap:round; stroke-linejoin:round;">
</g>
<g style="fill:#000000; fill-opacity:0.0; 
stroke:#000000; stroke-width:59.0551; stroke-opacity:1; 
stroke-linecap:round; stroke-linejoin:round;">
<rect x="4724.41" y="4724.41" width="100551" height="75551.2" rx="0" />
</g>
<g style="fill:#000000; fill-opacity:0.0; 
stroke:#000000; stroke-width:39.3701; stroke-opacity:1; 
stroke-linecap:round; stroke-linejoin:round;">
</g>
<g style="fill:#000000; fill-opacity:0.0; 
stroke:#000000; stroke-width:59.0551; stroke-opacity:1; 
stroke-linecap:round; stroke-linejoin:round;">
<path d="M23622 4724
L23622 3937
" />
</g>
<g style="fill:#000000; fill-opacity:0.0; 
stroke:#000000; stroke-width:39.3701; stroke-opacity:1; 
stroke-linecap:round; stroke-linejoin:round;">
</g>
<g style="fill:#000000; fill-opacity:0.0; 
stroke:#000000; stroke-width:59.0551; stroke-opacity:1; 
stroke-linecap:round; stroke-linejoin:round;">
<path d="M43307 4724
L43307 3937
" />
</g>
<g style="fill:#000000; fill-opacity:0.0; 
stroke:#000000; stroke-width:39.3701; stroke-opacity:1; 
stroke-linecap:round; stroke-linejoin:round;">
</g>
<g style="fill:#000000; fill-opacity:0.0; 
stroke:#000000; stroke-width:59.0551; stroke-opacity:1; 
stroke-linecap:round; stroke-linejoin:round;">
<path d="M62992 4724
L62992 3937
" />
</g>
<g style="fill:#000000; fill-opacity:0.0; 
stroke:#000000; stroke-width:39.3701; stroke-opacity:1; 
stroke-linecap:round; stroke-linejoin:round;">
</g>
<g style="fill:#000000; fill-opacity:0.0; 
stroke:#000000; stroke-width:59.0551; stroke-opacity:1; 
stroke-linecap:round; stroke-linejoin:round;">
<path d="M82677 4724
L82677 3937
" />
</g>
<g style="fill:#000000; fill-opacity:0.0; 
stroke:#000000; stroke-width:39.3701; stroke-opacity:1; 
stroke-linecap:round; stroke-linejoin:round;">
</g>
<g style="fill:#000000; fill-opacity:0.0; 
stroke:#000000; stroke-width:59.0551; stroke-opacity:1; 
stroke-linecap:round; stroke-linejoin:round;">
<path d="M102362 4724
L102362 3937
" />
</g>
<g style="fill:#000000; fill-opacity:0.0; 
stroke:#000000; stroke-width:39.3701; stroke-opacity:1; 
stroke-linecap:round; stroke-linejoin:round;">
</g>
<g style="fill:#000000; fill-opacity:0.0; 
stroke:#000000; stroke-width:59.0551; stroke-opacity:1; 
stroke-linecap:round; stroke-linejoin:round;">
<path d="M14169 4562
L13877 4562
" />
<path d="M14023 4562
L14023 4050
L13974 4123
L13925 4172
L13877 4196
" />
</g>
<g style="fill:#000000; fill-opacity:0.0; 
stroke:#000000; stroke-width:39.3701; stroke-opacity:1; 
stroke-linecap:round; stroke-linejoin:round;">
</g>
<g style="fill:#000000; fill-opacity:0.0; 
stroke:#000000; stroke-width:59.0551; stroke-opacity:1; 
stroke-linecap:round; stroke-linejoin:round;">
<path d="M33562 4099
L33586 4074
L33635 4050
L33757 4050
L33805 4074
L33830 4099
L33854 4147
L33854 4196
L33830 4269
L33537 4562
L33854 4562
" />
</g>
<g style="fill:#000000; fill-opacity:0.0; 
stroke:#000000; stroke-width:39.3701; stroke-opacity:1; 
stroke-linecap:round; stroke-linejoin:round;">
</g>
<g style="fill:#000000; fill-opacity:0.0; 
stroke:#000000; stroke-width:59.0551; stroke-opacity:1; 
stroke-linecap:round; stroke-linejoin:round;">
<path d="M53222 4050
L53539 4050
L53368 4245
L53442 4245
L53490 4269
L53515 4294
L53539 4342
L53539 4464
L53515 4513
L53490 4537
L53442 4562
L53295 4562
L53247 4537
L53222 4513
" />
</g>
<g style="fill:#000000; fill-opacity:0.0; 
stroke:#000000; stroke-width:39.3701; stroke-opacity:1; 
stroke-linecap:round; stroke-linejoin:round;">
</g>
<g style="fill:#000000; fill-opacity:0.0; 
stroke:#000000; stroke-width:59.0551; stroke-opacity:1; 
stroke-linecap:round; stroke-linejoin:round;">
<path d="M73175 4221
L73175 4562
" />
<path d="M73053 4026
L72932 4391
L73248 4391
" />
</g>
<g style="fill:#000000; fill-opacity:0.0; 
stroke:#000000; stroke-width:39.3701; stroke-opacity:1; 
stroke-linecap:round; stroke-linejoin:round;">
</g>
<g style="fill:#000000; fill-opacity:0.0; 
stroke:#000000; stroke-width:59.0551; stroke-opacity:1; 
stroke-linecap:round; stroke-linejoin:round;">
<path d="M92885 4050
L92641 4050
L92617 4294
L92641 4269
L92690 4245
L92812 4245
L92860 4269
L92885 4294
L92909 4342
L92909 4464
L92885 4513
L92860 4537
L92812 4562
L92690 4562
L92641 4537
L92617 4513
" />
</g>
<g style="fill:#000000; fill-opacity:0.0; 
stroke:#000000; stroke-width:39.3701; stroke-opacity:1; 
stroke-linecap:round; stroke-linejoin:round;">
</g>
<g style="fill:#000000; fill-opacity:0.0; 
stroke:#000000; stroke-width:59.0551; stroke-opacity:1; 
stroke-linecap:round; stroke-linejoin:round;">
<path d="M23622 80275
L23622 81062
" />
</g>
<g style="fill:#000000; fill-opacity:0.0; 
stroke:#000000; stroke-width:39.3701; stroke-opacity:1; 
stroke-linecap:round; stroke-linejoin:round;">
</g>
<g style="fill:#000000; fill-opacity:0.0; 
stroke:#000000; stroke-width:59.0551; stroke-opacity:1; 
stroke-linecap:round; stroke-linejoin:round;">
<path d="M43307 80275
L43307 81062
" />
</g>
<g style="fill:#000000; fill-opacity:0.0; 
stroke:#000000; stroke-width:39.3701; stroke-opacity:1; 
stroke-linecap:round; stroke-linejoin:round;">
</g>
<g style="fill:#000000; fill-opacity:0.0; 
stroke:#000000; stroke-width:59.0551; stroke-opacity:1; 
stroke-linecap:round; stroke-linejoin:round;">
<path d="M62992 80275
L62992 81062
" />
</g>
<g style="fill:#000000; fill-opacity:0.0; 
stroke:#000000; stroke-width:39.3701; stroke-opacity:1; 
stroke-linecap:round; stroke-linejoin:round;">
</g>
<g style="fill:#000000; fill-opacity:0.0; 
stroke:#000000; stroke-width:59.0551; stroke-opacity:1; 
stroke-linecap:round; stroke-linejoin:round;">
<path d="M82677 80275
L82677 81062
" />
</g>
<g style="fill:#000000; fill-opacity:0.0; 
stroke:#000000; stroke-width:39.3701; stroke-opacity:1; 
stroke-linecap:round; stroke-linejoin:round;">
</g>
<g style="fill:#000000; fill-opacity:0.0; 
stroke:#000000; stroke-width:59.0551; stroke-opacity:1; 
stroke-linecap:round; stroke-linejoin:round;">
<path d="M102362 80275
L102362 81062
" />
</g>
<g style="fill:#000000; fill-opacity:0.0; 
stroke:#000000; stroke-width:39.3701; stroke-opacity:1; 
stroke-linecap:round; stroke-linejoin:round;">
</g>
<g style="fill:#000000; fill-opacity:0.0; 
stroke:#000000; stroke-width:59.0551; stroke-opacity:1; 
stroke-linecap:round; stroke-linejoin:round;">
<path d="M14169 80900
L13877 80900
" />
<path d="M14023 80900
L14023 80389
L13974 80462
L13925 80510
L13877 80535
" />
</g>
<g style="fill:#000000; fill-opacity:0.0; 
stroke:#000000; stroke-width:39.3701; stroke-opacity:1; 
stroke-linecap:round; stroke-linejoin:round;">
</g>
<g style="fill:#000000; fill-opacity:0.0; 
stroke:#000000; stroke-width:59.0551; stroke-opacity:1; 
stroke-linecap:round; stroke-linejoin:round;">
<path d="M33562 80437
L33586 80413
L33635 80389
L33757 80389
L33805 80413
L33830 80437
L33854 80486
L33854 80535
L33830 80608
L33537 80900
L33854 80900
" />
</g>
<g style="fill:#000000; fill-opacity:0.0; 
stroke:#000000; stroke-width:39.3701; stroke-opacity:1; 
stroke-linecap:round; stroke-linejoin:round;">
</g>
<g style="fill:#000000; fill-opacity:0.0; 
stroke:#000000; stroke-width:59.0551; stroke-opacity:1; 
stroke-linecap:round; stroke-linejoin:round;">
<path d="M53222 80389
L53539 80389
L53368 80583
L53442 80583
L53490 80608
L53515 80632
L53539 80681
L53539 80803
L53515 80852
L53490 80876
L53442 80900
L53295 80900
L53247 80876
L53222 80852
" />
</g>
<g style="fill:#000000; fill-opacity:0.0; 
stroke:#000000; stroke-width:39.3701; stroke-opacity:1; 
stroke-linecap:round; stroke-linejoin:round;">
</g>
<g style="fill:#000000; fill-opacity:0.0; 
stroke:#000000; stroke-width:59.0551; stroke-opacity:1; 
stroke-linecap:round; stroke-linejoin:round;">
<path d="M73175 80559
L73175 80900
" />
<path d="M73053 80364
L72932 80730
L73248 80730
" />
</g>
<g style="fill:#000000; fill-opacity:0.0; 
stroke:#000000; stroke-width:39.3701; stroke-opacity:1; 
stroke-linecap:round; stroke-linejoin:round;">
</g>
<g style="fill:#000000; fill-opacity:0.0; 
stroke:#000000; stroke-width:59.0551; stroke-opacity:1; 
stroke-linecap:round; stroke-linejoin:round;">
<path d="M92885 80389
L92641 80389
L92617 80632
L92641 80608
L92690 80583
L92812 80583
L92860 80608
L92885 80632
L92909 80681
L92909 80803
L92885 80852
L92860 80876
L92812 80900
L92690 80900
L92641 80876
L92617 80852
" />
</g>
<g style="fill:#000000; fill-opacity:0.0; 
stroke:#000000; stroke-width:39.3701; stroke-opacity:1; 
stroke-linecap:round; stroke-linejoin:round;">
</g>
<g style="fill:#000000; fill-opacity:0.0; 
stroke:#000000; stroke-width:59.0551; stroke-opacity:1; 
stroke-linecap:round; stroke-linejoin:round;">
<path d="M3937 23622
L4724 23622
" />
</g>
<g style="fill:#000000; fill-opacity:0.0; 
stroke:#000000; stroke-width:39.3701; stroke-opacity:1; 
stroke-linecap:round; stroke-linejoin:round;">
</g>
<g style="fill:#000000; fill-opacity:0.0; 
stroke:#000000; stroke-width:59.0551; stroke-opacity:1; 
stroke-linecap:round; stroke-linejoin:round;">
<path d="M3937 43307
L4724 43307
" />
</g>
<g style="fill:#000000; fill-opacity:0.0; 
stroke:#000000; stroke-width:39.3701; stroke-opacity:1; 
stroke-linecap:round; stroke-linejoin:round;">
</g>
<g style="fill:#000000; fill-opacity:0.0; 
stroke:#000000; stroke-width:59.0551; stroke-opacity:1; 
stroke-linecap:round; stroke-linejoin:round;">
<path d="M3937 62992
L4724 62992
" />
</g>
<g style="fill:#000000; fill-opacity:0.0; 
stroke:#000000; stroke-width:39.3701; stroke-opacity:1; 
stroke-linecap:round; stroke-linejoin:round;">
</g>
<g style="fill:#000000; fill-opacity:0.0; 
stroke:#000000; stroke-width:59.0551; stroke-opacity:1; 
stroke-linecap:round; stroke-linejoin:round;">
<path d="M4208 13864
L4452 13864
" />
<path d="M4160 14011
L4330 13499
L4501 14011
" />
</g>
<g style="fill:#000000; fill-opacity:0.0; 
stroke:#000000; stroke-width:39.3701; stroke-opacity:1; 
stroke-linecap:round; stroke-linejoin:round;">
</g>
<g style="fill:#000000; fill-opacity:0.0; 
stroke:#000000; stroke-width:59.0551; stroke-opacity:1; 
stroke-linecap:round; stroke-linejoin:round;">
<path d="M4367 33428
L4440 33452
L4464 33476
L4489 33525
L4489 33598
L4464 33647
L4440 33671
L4391 33696
L4196 33696
L4196 33184
L4367 33184
L4416 33208
L4440 33233
L4464 33281
L4464 33330
L4440 33379
L4416 33403
L4367 33428
L4196 33428
" />
</g>
<g style="fill:#000000; fill-opacity:0.0; 
stroke:#000000; stroke-width:39.3701; stroke-opacity:1; 
stroke-linecap:round; stroke-linejoin:round;">
</g>
<g style="fill:#000000; fill-opacity:0.0; 
stroke:#000000; stroke-width:59.0551; stroke-opacity:1; 
stroke-linecap:round; stroke-linejoin:round;">
<path d="M4489 53332
L4464 53356
L4391 53381
L4342 53381
L4269 53356
L4221 53308
L4196 53259
L4172 53161
L4172 53088
L4196 52991
L4221 52942
L4269 52893
L4342 52869
L4391 52869
L4464 52893
L4489 52918
" />
</g>
<g style="fill:#000000; fill-opacity:0.0; 
stroke:#000000; stroke-width:39.3701; stroke-opacity:1; 
stroke-linecap:round; stroke-linejoin:round;">
</g>
<g style="fill:#000000; fill-opacity:0.0; 
stroke:#000000; stroke-width:59.0551; stroke-opacity:1; 
stroke-linecap:round; stroke-linejoin:round;">
<path d="M4196 73066
L4196 72554
L4318 72554
L4391 72578
L4440 72627
L4464 72676
L4489 72773
L4489 72846
L4464 72944
L4440 72993
L4391 73041
L4318 73066
L4196 73066
" />
</g>
<g style="fill:#000000; fill-opacity:0.0; 
stroke:#000000; stroke-width:39.3701; stroke-opacity:1; 
stroke-linecap:round; stroke-linejoin:round;">
</g>
<g style="fill:#000000; fill-opacity:0.0; 
stroke:#000000; stroke-width:59.0551; stroke-opacity:1; 
stroke-linecap:round; stroke-linejoin:round;">
<path d="M106062 23622
L105275 23622
" />
</g>
<g style="fill:#000000; fill-opacity:0.0; 
stroke:#000000; stroke-width:39.3701; stroke-opacity:1; 
stroke-linecap:round; stroke-linejoin:round;">
</g>
<g style="fill:#000000; fill-opacity:0.0; 
stroke:#000000; stroke-width:59.0551; stroke-opacity:1; 
stroke-linecap:round; stroke-linejoin:round;">
<path d="M106062 43307
L105275 43307
" />
</g>
<g style="fill:#000000; fill-opacity:0.0; 
stroke:#000000; stroke-width:39.3701; stroke-opacity:1; 
stroke-linecap:round; stroke-linejoin:round;">
</g>
<g style="fill:#000000; fill-opacity:0.0; 
stroke:#000000; stroke-width:59.0551; stroke-opacity:1; 
stroke-linecap:round; stroke-linejoin:round;">
<path d="M106062 62992
L105275 62992
" />
</g>
<g style="fill:#000000; fill-opacity:0.0; 
stroke:#000000; stroke-width:39.3701; stroke-opacity:1; 
stroke-linecap:round; stroke-linejoin:round;">
</g>
<g style="fill:#000000; fill-opacity:0.0; 
stroke:#000000; stroke-width:59.0551; stroke-opacity:1; 
stroke-linecap:round; stroke-linejoin:round;">
<path d="M105547 13864
L105791 13864
" />
<path d="M105498 14011
L105669 13499
L105839 14011
" />
</g>
<g style="fill:#000000; fill-opacity:0.0; 
stroke:#000000; stroke-width:39.3701; stroke-opacity:1; 
stroke-linecap:round; stroke-linejoin:round;">
</g>
<g style="fill:#000000; fill-opacity:0.0; 
stroke:#000000; stroke-width:59.0551; stroke-opacity:1; 
stroke-linecap:round; stroke-linejoin:round;">
<path d="M105705 33428
L105778 33452
L105803 33476
L105827 33525
L105827 33598
L105803 33647
L105778 33671
L105730 33696
L105535 33696
L105535 33184
L105705 33184
L105754 33208
L105778 33233
L105803 33281
L105803 33330
L105778 33379
L105754 33403
L105705 33428
L105535 33428
" />
</g>
<g style="fill:#000000; fill-opacity:0.0; 
stroke:#000000; stroke-width:39.3701; stroke-opacity:1; 
stroke-linecap:round; stroke-linejoin:round;">
</g>
<g style="fill:#000000; fill-opacity:0.0; 
stroke:#000000; stroke-width:59.0551; stroke-opacity:1; 
stroke-linecap:round; stroke-linejoin:round;">
<path d="M105827 53332
L105803 53356
L105730 53381
L105681 53381
L105608 53356
L105559 53308
L105535 53259
L105510 53161
L105510 53088
L105535 52991
L105559 52942
L105608 52893
L105681 52869
L105730 52869
L105803 52893
L105827 52918
" />
</g>
<g style="fill:#000000; fill-opacity:0.0; 
stroke:#000000; stroke-width:39.3701; stroke-opacity:1; 
stroke-linecap:round; stroke-linejoin:round;">
</g>
<g style="fill:#000000; fill-opacity:0.0; 
stroke:#000000; stroke-width:59.0551; stroke-opacity:1; 
stroke-linecap:round; stroke-linejoin:round;">
<path d="M105535 73066
L105535 72554
L105657 72554
L105730 72578
L105778 72627
L105803 72676
L105827 72773
L105827 72846
L105803 72944
L105778 72993
L105730 73041
L105657 73066
L105535 73066
" />
</g>
<g style="fill:#000000; fill-opacity:0.0; 
stroke:#000000; stroke-width:39.3701; stroke-opacity:1; 
stroke-linecap:round; stroke-linejoin:round;">
</g>
<g style="fill:#000000; fill-opacity:0.0; 
stroke:#000000; stroke-width:59.0551; stroke-opacity:1; 
stroke-linecap:round; stroke-linejoin:round;">
<path d="M71951 78613
L71951 78023
L72092 78023
L72176 78051
L72232 78107
L72260 78163
L72289 78276
L72289 78360
L72260 78473
L72232 78529
L72176 78585
L72092 78613
L71951 78613
" />
<path d="M72795 78613
L72795 78304
L72767 78248
L72710 78219
L72598 78219
L72542 78248
" />
<path d="M72795 78585
L72739 78613
L72598 78613
L72542 78585
L72514 78529
L72514 78473
L72542 78416
L72598 78388
L72739 78388
L72795 78360
" />
<path d="M72992 78219
L73217 78219
" />
<path d="M73076 78023
L73076 78529
L73104 78585
L73160 78613
L73217 78613
" />
<path d="M73638 78585
L73582 78613
L73470 78613
L73413 78585
L73385 78529
L73385 78304
L73413 78248
L73470 78219
L73582 78219
L73638 78248
L73667 78304
L73667 78360
L73385 78416
" />
<path d="M73920 78557
L73948 78585
L73920 78613
L73892 78585
L73920 78557
L73920 78613
" />
<path d="M73920 78248
L73948 78276
L73920 78304
L73892 78276
L73920 78248
L73920 78304
" />
<path d="M74623 78079
L74651 78051
L74707 78023
L74848 78023
L74904 78051
L74932 78079
L74960 78135
L74960 78191
L74932 78276
L74595 78613
L74960 78613
" />
<path d="M75326 78023
L75382 78023
L75438 78051
L75466 78079
L75494 78135
L75523 78248
L75523 78388
L75494 78501
L75466 78557
L75438 78585
L75382 78613
L75326 78613
L75269 78585
L75241 78557
L75213 78501
L75185 78388
L75185 78248
L75213 78135
L75241 78079
L75269 78051
L75326 78023
" />
<path d="M76085 78613
L75748 78613
" />
<path d="M75916 78613
L75916 78023
L75860 78107
L75804 78163
L75748 78191
" />
<path d="M76619 78023
L76338 78023
L76310 78304
L76338 78276
L76394 78248
L76535 78248
L76591 78276
L76619 78304
L76647 78360
L76647 78501
L76619 78557
L76591 78585
L76535 78613
L76394 78613
L76338 78585
L76310 78557
" />
<path d="M76901 78388
L77350 78388
" />
<path d="M77941 78613
L77604 78613
" />
<path d="M77772 78613
L77772 78023
L77716 78107
L77660 78163
L77604 78191
" />
<path d="M78307 78023
L78363 78023
L78419 78051
L78447 78079
L78475 78135
L78503 78248
L78503 78388
L78475 78501
L78447 78557
L78419 78585
L78363 78613
L78307 78613
L78250 78585
L78222 78557
L78194 78501
L78166 78388
L78166 78248
L78194 78135
L78222 78079
L78250 78051
L78307 78023
" />
<path d="M78757 78388
L79206 78388
" />
<path d="M79600 78023
L79656 78023
L79713 78051
L79741 78079
L79769 78135
L79797 78248
L79797 78388
L79769 78501
L79741 78557
L79713 78585
L79656 78613
L79600 78613
L79544 78585
L79516 78557
L79488 78501
L79460 78388
L79460 78248
L79488 78135
L79516 78079
L79544 78051
L79600 78023
" />
<path d="M80331 78023
L80050 78023
L80022 78304
L80050 78276
L80106 78248
L80247 78248
L80303 78276
L80331 78304
L80359 78360
L80359 78501
L80331 78557
L80303 78585
L80247 78613
L80106 78613
L80050 78585
L80022 78557
" />
</g>
<g style="fill:#000000; fill-opacity:0.0; 
stroke:#000000; stroke-width:39.3701; stroke-opacity:1; 
stroke-linecap:round; stroke-linejoin:round;">
</g>
<g style="fill:#000000; fill-opacity:0.0; 
stroke:#000000; stroke-width:59.0551; stroke-opacity:1; 
stroke-linecap:round; stroke-linejoin:round;">
<path d="M62755 78897
L105275 78897
" />
</g>
<g style="fill:#000000; fill-opacity:0.0; 
stroke:#000000; stroke-width:39.3701; stroke-opacity:1; 
stroke-linecap:round; stroke-linejoin:round;">
</g>
<g style="fill:#000000; fill-opacity:0.0; 
stroke:#000000; stroke-width:59.0551; stroke-opacity:1; 
stroke-linecap:round; stroke-linejoin:round;">
<path d="M63290 79715
L63290 79125
" />
<path d="M63627 79715
L63374 79378
" />
<path d="M63627 79125
L63290 79462
" />
<path d="M63880 79715
L63880 79322
" />
<path d="M63880 79125
L63852 79153
L63880 79181
L63908 79153
L63880 79125
L63880 79181
" />
<path d="M64499 79659
L64471 79687
L64386 79715
L64330 79715
L64246 79687
L64190 79631
L64161 79575
L64133 79462
L64133 79378
L64161 79266
L64190 79209
L64246 79153
L64330 79125
L64386 79125
L64471 79153
L64499 79181
" />
<path d="M65005 79715
L65005 79406
L64977 79350
L64921 79322
L64808 79322
L64752 79350
" />
<path d="M65005 79687
L64949 79715
L64808 79715
L64752 79687
L64724 79631
L64724 79575
L64752 79519
L64808 79491
L64949 79491
L65005 79462
" />
<path d="M65539 79715
L65539 79125
" />
<path d="M65539 79687
L65483 79715
L65371 79715
L65314 79687
L65286 79659
L65258 79603
L65258 79434
L65286 79378
L65314 79350
L65371 79322
L65483 79322
L65539 79350
" />
<path d="M66271 79406
L66467 79406
" />
<path d="M66552 79715
L66271 79715
L66271 79125
L66552 79125
" />
<path d="M66805 79659
L66833 79687
L66805 79715
L66777 79687
L66805 79659
L66805 79715
" />
<path d="M67086 79715
L67086 79125
L67227 79125
L67311 79153
L67367 79209
L67395 79266
L67424 79378
L67424 79462
L67395 79575
L67367 79631
L67311 79687
L67227 79715
L67086 79715
" />
<path d="M67677 79659
L67705 79687
L67677 79715
L67649 79687
L67677 79659
L67677 79715
" />
<path d="M67930 79547
L68211 79547
" />
<path d="M67874 79715
L68070 79125
L68267 79715
" />
<path d="M68464 79659
L68492 79687
L68464 79715
L68436 79687
L68464 79659
L68464 79715
" />
<path d="M69645 79715
L69645 79125
" />
<path d="M69701 79491
L69870 79715
" />
<path d="M69870 79322
L69645 79547
" />
<path d="M70123 79715
L70123 79322
" />
<path d="M70123 79125
L70095 79153
L70123 79181
L70151 79153
L70123 79125
L70123 79181
" />
<path d="M70658 79687
L70601 79715
L70489 79715
L70433 79687
L70404 79659
L70376 79603
L70376 79434
L70404 79378
L70433 79350
L70489 79322
L70601 79322
L70658 79350
" />
<path d="M71164 79715
L71164 79406
L71136 79350
L71079 79322
L70967 79322
L70911 79350
" />
<path d="M71164 79687
L71107 79715
L70967 79715
L70911 79687
L70883 79631
L70883 79575
L70911 79519
L70967 79491
L71107 79491
L71164 79462
" />
<path d="M71698 79715
L71698 79125
" />
<path d="M71698 79687
L71642 79715
L71529 79715
L71473 79687
L71445 79659
L71417 79603
L71417 79434
L71445 79378
L71473 79350
L71529 79322
L71642 79322
L71698 79350
" />
<path d="M72682 79322
L72682 79715
" />
<path d="M72542 79097
L72401 79519
L72767 79519
" />
<path d="M72992 79659
L73020 79687
L72992 79715
L72964 79687
L72992 79659
L72992 79715
" />
<path d="M73385 79125
L73442 79125
L73498 79153
L73526 79181
L73554 79237
L73582 79350
L73582 79491
L73554 79603
L73526 79659
L73498 79687
L73442 79715
L73385 79715
L73329 79687
L73301 79659
L73273 79603
L73245 79491
L73245 79350
L73273 79237
L73301 79181
L73329 79153
L73385 79125
" />
<path d="M73835 79659
L73863 79687
L73835 79715
L73807 79687
L73835 79659
L73835 79715
" />
<path d="M74426 79715
L74088 79715
" />
<path d="M74257 79715
L74257 79125
L74201 79209
L74145 79266
L74088 79294
" />
<path d="M74679 79491
L75129 79491
" />
<path d="M75354 79125
L75719 79125
L75523 79350
L75607 79350
L75663 79378
L75691 79406
L75719 79462
L75719 79603
L75691 79659
L75663 79687
L75607 79715
L75438 79715
L75382 79687
L75354 79659
" />
<path d="M75973 79659
L76001 79687
L75973 79715
L75944 79687
L75973 79659
L75973 79715
" />
<path d="M76226 79181
L76254 79153
L76310 79125
L76451 79125
L76507 79153
L76535 79181
L76563 79237
L76563 79294
L76535 79378
L76197 79715
L76563 79715
" />
<path d="M76929 79125
L76985 79125
L77041 79153
L77069 79181
L77097 79237
L77125 79350
L77125 79491
L77097 79603
L77069 79659
L77041 79687
L76985 79715
L76929 79715
L76872 79687
L76844 79659
L76816 79603
L76788 79491
L76788 79350
L76816 79237
L76844 79181
L76872 79153
L76929 79125
" />
<path d="M77688 79715
L77350 79715
" />
<path d="M77519 79715
L77519 79125
L77463 79209
L77407 79266
L77350 79294
" />
<path d="M78222 79125
L77941 79125
L77913 79406
L77941 79378
L77997 79350
L78138 79350
L78194 79378
L78222 79406
L78250 79462
L78250 79603
L78222 79659
L78194 79687
L78138 79715
L77997 79715
L77941 79687
L77913 79659
" />
<path d="M78813 79715
L78475 79715
" />
<path d="M78644 79715
L78644 79125
L78588 79209
L78532 79266
L78475 79294
" />
<path d="M79038 79181
L79066 79153
L79122 79125
L79263 79125
L79319 79153
L79347 79181
L79375 79237
L79375 79294
L79347 79378
L79010 79715
L79375 79715
" />
<path d="M79600 79181
L79628 79153
L79685 79125
L79825 79125
L79881 79153
L79910 79181
L79938 79237
L79938 79294
L79910 79378
L79572 79715
L79938 79715
" />
<path d="M80163 79181
L80191 79153
L80247 79125
L80388 79125
L80444 79153
L80472 79181
L80500 79237
L80500 79294
L80472 79378
L80134 79715
L80500 79715
" />
<path d="M81062 79715
L80725 79715
" />
<path d="M80894 79715
L80894 79125
L80838 79209
L80781 79266
L80725 79294
" />
<path d="M81569 79322
L81569 79715
" />
<path d="M81428 79097
L81287 79519
L81653 79519
" />
<path d="M81990 79125
L82047 79125
L82103 79153
L82131 79181
L82159 79237
L82187 79350
L82187 79491
L82159 79603
L82131 79659
L82103 79687
L82047 79715
L81990 79715
L81934 79687
L81906 79659
L81878 79603
L81850 79491
L81850 79350
L81878 79237
L81906 79181
L81934 79153
L81990 79125
" />
<path d="M82750 79715
L82412 79715
" />
<path d="M82581 79715
L82581 79125
L82525 79209
L82469 79266
L82412 79294
" />
<path d="M83003 79491
L83453 79491
" />
<path d="M83228 79715
L83228 79266
" />
<path d="M83987 79125
L83875 79125
L83818 79153
L83790 79181
L83734 79266
L83706 79378
L83706 79603
L83734 79659
L83762 79687
L83818 79715
L83931 79715
L83987 79687
L84015 79659
L84043 79603
L84043 79462
L84015 79406
L83987 79378
L83931 79350
L83818 79350
L83762 79378
L83734 79406
L83706 79462
" />
<path d="M84606 79715
L84268 79715
" />
<path d="M84437 79715
L84437 79125
L84381 79209
L84325 79266
L84268 79294
" />
<path d="M84887 79715
L84999 79715
L85056 79687
L85084 79659
L85140 79575
L85168 79462
L85168 79237
L85140 79181
L85112 79153
L85056 79125
L84943 79125
L84887 79153
L84859 79181
L84831 79237
L84831 79378
L84859 79434
L84887 79462
L84943 79491
L85056 79491
L85112 79462
L85140 79434
L85168 79378
" />
<path d="M85506 79378
L85449 79350
L85421 79322
L85393 79266
L85393 79237
L85421 79181
L85449 79153
L85506 79125
L85618 79125
L85674 79153
L85703 79181
L85731 79237
L85731 79266
L85703 79322
L85674 79350
L85618 79378
L85506 79378
L85449 79406
L85421 79434
L85393 79491
L85393 79603
L85421 79659
L85449 79687
L85506 79715
L85618 79715
L85674 79687
L85703 79659
L85731 79603
L85731 79491
L85703 79434
L85674 79406
L85618 79378
" />
<path d="M85928 79125
L86293 79125
L86096 79350
L86181 79350
L86237 79378
L86265 79406
L86293 79462
L86293 79603
L86265 79659
L86237 79687
L86181 79715
L86012 79715
L85956 79687
L85928 79659
" />
<path d="M86631 79378
L86574 79350
L86546 79322
L86518 79266
L86518 79237
L86546 79181
L86574 79153
L86631 79125
L86743 79125
L86799 79153
L86827 79181
L86856 79237
L86856 79266
L86827 79322
L86799 79350
L86743 79378
L86631 79378
L86574 79406
L86546 79434
L86518 79491
L86518 79603
L86546 79659
L86574 79687
L86631 79715
L86743 79715
L86799 79687
L86827 79659
L86856 79603
L86856 79491
L86827 79434
L86799 79406
L86743 79378
" />
<path d="M85843 79023
L86968 79023
" />
<path d="M87362 79322
L87362 79715
" />
<path d="M87109 79322
L87109 79631
L87137 79687
L87193 79715
L87277 79715
L87334 79687
L87362 79659
" />
<path d="M87643 79715
L87643 79125
" />
<path d="M87643 79350
L87699 79322
L87812 79322
L87868 79350
L87896 79378
L87924 79434
L87924 79603
L87896 79659
L87868 79687
L87812 79715
L87699 79715
L87643 79687
" />
<path d="M88430 79322
L88430 79715
" />
<path d="M88177 79322
L88177 79631
L88205 79687
L88262 79715
L88346 79715
L88402 79687
L88430 79659
" />
<path d="M88712 79322
L88712 79715
" />
<path d="M88712 79378
L88740 79350
L88796 79322
L88880 79322
L88937 79350
L88965 79406
L88965 79715
" />
<path d="M89161 79322
L89386 79322
" />
<path d="M89246 79125
L89246 79631
L89274 79687
L89330 79715
L89386 79715
" />
<path d="M89836 79322
L89836 79715
" />
<path d="M89583 79322
L89583 79631
L89611 79687
L89668 79715
L89752 79715
L89808 79687
L89836 79659
" />
<path d="M90427 79715
L90089 79715
" />
<path d="M90258 79715
L90258 79125
L90202 79209
L90146 79266
L90089 79294
" />
<path d="M90961 79125
L90680 79125
L90652 79406
L90680 79378
L90736 79350
L90877 79350
L90933 79378
L90961 79406
L90989 79462
L90989 79603
L90961 79659
L90933 79687
L90877 79715
L90736 79715
L90680 79687
L90652 79659
" />
<path d="M91242 79659
L91271 79687
L91242 79715
L91214 79687
L91242 79659
L91242 79715
" />
<path d="M91833 79715
L91496 79715
" />
<path d="M91664 79715
L91664 79125
L91608 79209
L91552 79266
L91496 79294
" />
<path d="M92199 79125
L92255 79125
L92311 79153
L92339 79181
L92367 79237
L92395 79350
L92395 79491
L92367 79603
L92339 79659
L92311 79687
L92255 79715
L92199 79715
L92142 79687
L92114 79659
L92086 79603
L92058 79491
L92058 79350
L92086 79237
L92114 79181
L92142 79153
L92199 79125
" />
<path d="M92649 79659
L92677 79687
L92649 79715
L92620 79687
L92649 79659
L92649 79715
" />
<path d="M93239 79715
L92902 79715
" />
<path d="M93070 79715
L93070 79125
L93014 79209
L92958 79266
L92902 79294
" />
<path d="M93492 79491
L93942 79491
" />
<path d="M94195 79687
L94251 79715
L94364 79715
L94420 79687
L94448 79631
L94448 79603
L94420 79547
L94364 79519
L94280 79519
L94223 79491
L94195 79434
L94195 79406
L94223 79350
L94280 79322
L94364 79322
L94420 79350
" />
<path d="M94617 79322
L94842 79322
" />
<path d="M94701 79125
L94701 79631
L94730 79687
L94786 79715
L94842 79715
" />
<path d="M95292 79715
L95292 79406
L95264 79350
L95208 79322
L95095 79322
L95039 79350
" />
<path d="M95292 79687
L95236 79715
L95095 79715
L95039 79687
L95011 79631
L95011 79575
L95039 79519
L95095 79491
L95236 79491
L95292 79462
" />
<path d="M95573 79715
L95573 79125
" />
<path d="M95573 79350
L95629 79322
L95742 79322
L95798 79350
L95826 79378
L95854 79434
L95854 79603
L95826 79659
L95798 79687
L95742 79715
L95629 79715
L95573 79687
" />
<path d="M96192 79715
L96136 79687
L96107 79631
L96107 79125
" />
<path d="M96642 79687
L96586 79715
L96473 79715
L96417 79687
L96389 79631
L96389 79406
L96417 79350
L96473 79322
L96586 79322
L96642 79350
L96670 79406
L96670 79462
L96389 79519
" />
</g>
<g style="fill:#000000; fill-opacity:0.0; 
stroke:#000000; stroke-width:39.3701; stroke-opacity:1; 
stroke-linecap:round; stroke-linejoin:round;">
</g>
<g style="fill:#000000; fill-opacity:0.0; 
stroke:#000000; stroke-width:59.0551; stroke-opacity:1; 
stroke-linecap:round; stroke-linejoin:round;">
<path d="M62755 77716
L105275 77716
" />
</g>
<g style="fill:#000000; fill-opacity:0.0; 
stroke:#000000; stroke-width:39.3701; stroke-opacity:1; 
stroke-linecap:round; stroke-linejoin:round;">
</g>
<g style="fill:#000000; fill-opacity:0.0; 
stroke:#000000; stroke-width:118.11; stroke-opacity:1; 
stroke-linecap:round; stroke-linejoin:round;">
<path d="M97092 78613
L96895 78332
" />
<path d="M96754 78613
L96754 78023
L96979 78023
L97035 78051
L97064 78079
L97092 78135
L97092 78219
L97064 78276
L97035 78304
L96979 78332
L96754 78332
" />
<path d="M97570 78585
L97514 78613
L97401 78613
L97345 78585
L97317 78529
L97317 78304
L97345 78248
L97401 78219
L97514 78219
L97570 78248
L97598 78304
L97598 78360
L97317 78416
" />
<path d="M97795 78219
L97935 78613
L98076 78219
" />
<path d="M98301 78557
L98329 78585
L98301 78613
L98273 78585
L98301 78557
L98301 78613
" />
<path d="M98301 78248
L98329 78276
L98301 78304
L98273 78276
L98301 78248
L98301 78304
" />
</g>
<g style="fill:#000000; fill-opacity:0.0; 
stroke:#000000; stroke-width:39.3701; stroke-opacity:1; 
stroke-linecap:round; stroke-linejoin:round;">
</g>
<g style="fill:#000000; fill-opacity:0.0; 
stroke:#000000; stroke-width:59.0551; stroke-opacity:1; 
stroke-linecap:round; stroke-linejoin:round;">
<path d="M63262 78585
L63346 78613
L63487 78613
L63543 78585
L63571 78557
L63599 78501
L63599 78444
L63571 78388
L63543 78360
L63487 78332
L63374 78304
L63318 78276
L63290 78248
L63262 78191
L63262 78135
L63290 78079
L63318 78051
L63374 78023
L63515 78023
L63599 78051
" />
<path d="M63852 78613
L63852 78219
" />
<path d="M63852 78023
L63824 78051
L63852 78079
L63880 78051
L63852 78023
L63852 78079
" />
<path d="M64077 78219
L64386 78219
L64077 78613
L64386 78613
" />
<path d="M64836 78585
L64780 78613
L64668 78613
L64611 78585
L64583 78529
L64583 78304
L64611 78248
L64668 78219
L64780 78219
L64836 78248
L64865 78304
L64865 78360
L64583 78416
" />
<path d="M65118 78557
L65146 78585
L65118 78613
L65089 78585
L65118 78557
L65118 78613
" />
<path d="M65118 78248
L65146 78276
L65118 78304
L65089 78276
L65118 78248
L65118 78304
" />
<path d="M65849 78023
L65849 78501
L65877 78557
L65905 78585
L65961 78613
L66074 78613
L66130 78585
L66158 78557
L66186 78501
L66186 78023
" />
<path d="M66439 78585
L66524 78613
L66664 78613
L66721 78585
L66749 78557
L66777 78501
L66777 78444
L66749 78388
L66721 78360
L66664 78332
L66552 78304
L66496 78276
L66467 78248
L66439 78191
L66439 78135
L66467 78079
L66496 78051
L66552 78023
L66692 78023
L66777 78051
" />
<path d="M67311 78613
L67030 78613
L67030 78023
" />
<path d="M67733 78585
L67677 78613
L67564 78613
L67508 78585
L67480 78529
L67480 78304
L67508 78248
L67564 78219
L67677 78219
L67733 78248
L67761 78304
L67761 78360
L67480 78416
" />
<path d="M67930 78219
L68155 78219
" />
<path d="M68014 78023
L68014 78529
L68042 78585
L68098 78613
L68155 78613
" />
<path d="M68267 78219
L68492 78219
" />
<path d="M68352 78023
L68352 78529
L68380 78585
L68436 78613
L68492 78613
" />
<path d="M68914 78585
L68858 78613
L68745 78613
L68689 78585
L68661 78529
L68661 78304
L68689 78248
L68745 78219
L68858 78219
L68914 78248
L68942 78304
L68942 78360
L68661 78416
" />
<path d="M69195 78613
L69195 78219
" />
<path d="M69195 78332
L69223 78276
L69251 78248
L69308 78219
L69364 78219
" />
</g>
<g style="fill:#000000; fill-opacity:0.0; 
stroke:#000000; stroke-width:39.3701; stroke-opacity:1; 
stroke-linecap:round; stroke-linejoin:round;">
</g>
<g style="fill:#000000; fill-opacity:0.0; 
stroke:#000000; stroke-width:59.0551; stroke-opacity:1; 
stroke-linecap:round; stroke-linejoin:round;">
<path d="M96754 79715
L96754 79125
" />
<path d="M97289 79715
L97289 79125
" />
<path d="M97289 79687
L97232 79715
L97120 79715
L97064 79687
L97035 79659
L97007 79603
L97007 79434
L97035 79378
L97064 79350
L97120 79322
L97232 79322
L97289 79350
" />
<path d="M97570 79659
L97598 79687
L97570 79715
L97542 79687
L97570 79659
L97570 79715
" />
<path d="M97570 79350
L97598 79378
L97570 79406
L97542 79378
L97570 79350
L97570 79406
" />
<path d="M98610 79715
L98273 79715
" />
<path d="M98442 79715
L98442 79125
L98385 79209
L98329 79266
L98273 79294
" />
<path d="M99285 79097
L98779 79856
" />
<path d="M99791 79715
L99454 79715
" />
<path d="M99623 79715
L99623 79125
L99566 79209
L99510 79266
L99454 79294
" />
</g>
<g style="fill:#000000; fill-opacity:0.0; 
stroke:#000000; stroke-width:39.3701; stroke-opacity:1; 
stroke-linecap:round; stroke-linejoin:round;">
</g>
<g style="fill:#000000; fill-opacity:0.0; 
stroke:#000000; stroke-width:59.0551; stroke-opacity:1; 
stroke-linecap:round; stroke-linejoin:round;">
<path d="M62755 76141
L105275 76141
" />
</g>
<g style="fill:#000000; fill-opacity:0.0; 
stroke:#000000; stroke-width:39.3701; stroke-opacity:1; 
stroke-linecap:round; stroke-linejoin:round;">
</g>
<g style="fill:#000000; fill-opacity:0.0; 
stroke:#000000; stroke-width:157.48; stroke-opacity:1; 
stroke-linecap:round; stroke-linejoin:round;">
<path d="M63327 76419
L63777 76419
" />
<path d="M63454 77206
L63552 76419
" />
<path d="M63941 77206
L64007 76681
" />
<path d="M64040 76419
L63997 76456
L64030 76494
L64072 76456
L64040 76419
L64030 76494
" />
<path d="M64269 76681
L64569 76681
" />
<path d="M64415 76419
L64330 77094
L64358 77169
L64429 77206
L64504 77206
" />
<path d="M64879 77206
L64808 77169
L64780 77094
L64865 76419
" />
<path d="M65483 77169
L65404 77206
L65254 77206
L65183 77169
L65155 77094
L65193 76794
L65239 76719
L65319 76681
L65469 76681
L65539 76719
L65568 76794
L65558 76869
L65174 76944
" />
<path d="M65863 77131
L65896 77169
L65853 77206
L65821 77169
L65863 77131
L65853 77206
" />
<path d="M65914 76719
L65947 76756
L65905 76794
L65872 76756
L65914 76719
L65905 76794
" />
</g>
<g style="fill:#000000; fill-opacity:0.0; 
stroke:#000000; stroke-width:39.3701; stroke-opacity:1; 
stroke-linecap:round; stroke-linejoin:round;">
</g>
<g style="fill:#000000; fill-opacity:0.0; 
stroke:#000000; stroke-width:59.0551; stroke-opacity:1; 
stroke-linecap:round; stroke-linejoin:round;">
<path d="M63487 75390
L63290 75390
" />
<path d="M63290 75700
L63290 75109
L63571 75109
" />
<path d="M63796 75700
L63796 75306
" />
<path d="M63796 75109
L63768 75137
L63796 75165
L63824 75137
L63796 75109
L63796 75165
" />
<path d="M64161 75700
L64105 75672
L64077 75615
L64077 75109
" />
<path d="M64611 75672
L64555 75700
L64443 75700
L64386 75672
L64358 75615
L64358 75390
L64386 75334
L64443 75306
L64555 75306
L64611 75334
L64640 75390
L64640 75447
L64358 75503
" />
<path d="M64893 75643
L64921 75672
L64893 75700
L64865 75672
L64893 75643
L64893 75700
" />
<path d="M64893 75334
L64921 75362
L64893 75390
L64865 75362
L64893 75334
L64893 75390
" />
<path d="M65624 75306
L65624 75897
" />
<path d="M65624 75334
L65680 75306
L65793 75306
L65849 75334
L65877 75362
L65905 75419
L65905 75587
L65877 75643
L65849 75672
L65793 75700
L65680 75700
L65624 75672
" />
<path d="M66158 75700
L66158 75306
" />
<path d="M66158 75109
L66130 75137
L66158 75165
L66186 75137
L66158 75109
L66158 75165
" />
<path d="M66439 75306
L66439 75700
" />
<path d="M66439 75362
L66467 75334
L66524 75306
L66608 75306
L66664 75334
L66692 75390
L66692 75700
" />
<path d="M67227 75306
L67227 75784
L67199 75840
L67170 75868
L67114 75897
L67030 75897
L66974 75868
" />
<path d="M67227 75672
L67170 75700
L67058 75700
L67002 75672
L66974 75643
L66946 75587
L66946 75419
L66974 75362
L67002 75334
L67058 75306
L67170 75306
L67227 75334
" />
<path d="M67761 75306
L67761 75700
" />
<path d="M67508 75306
L67508 75615
L67536 75672
L67592 75700
L67677 75700
L67733 75672
L67761 75643
" />
<path d="M68042 75700
L68042 75306
" />
<path d="M68042 75109
L68014 75137
L68042 75165
L68070 75137
L68042 75109
L68042 75165
" />
<path d="M68323 75306
L68323 75700
" />
<path d="M68323 75362
L68352 75334
L68408 75306
L68492 75306
L68548 75334
L68577 75390
L68577 75700
" />
<path d="M68942 75700
L68886 75672
L68858 75643
L68830 75587
L68830 75419
L68858 75362
L68886 75334
L68942 75306
L69026 75306
L69083 75334
L69111 75362
L69139 75419
L69139 75587
L69111 75643
L69083 75672
L69026 75700
L68942 75700
" />
<path d="M69251 75756
L69701 75756
" />
<path d="M70095 75306
L70095 75700
" />
<path d="M69955 75081
L69814 75503
L70179 75503
" />
<path d="M70686 75109
L70404 75109
L70376 75390
L70404 75362
L70461 75334
L70601 75334
L70658 75362
L70686 75390
L70714 75447
L70714 75587
L70686 75643
L70658 75672
L70601 75700
L70461 75700
L70404 75672
L70376 75643
" />
<path d="M71248 75109
L70967 75109
L70939 75390
L70967 75362
L71023 75334
L71164 75334
L71220 75362
L71248 75390
L71276 75447
L71276 75587
L71248 75643
L71220 75672
L71164 75700
L71023 75700
L70967 75672
L70939 75643
" />
<path d="M71642 75109
L71698 75109
L71754 75137
L71782 75165
L71811 75222
L71839 75334
L71839 75475
L71811 75587
L71782 75643
L71754 75672
L71698 75700
L71642 75700
L71586 75672
L71557 75643
L71529 75587
L71501 75475
L71501 75334
L71529 75222
L71557 75165
L71586 75137
L71642 75109
" />
<path d="M72092 75643
L72120 75672
L72092 75700
L72064 75672
L72092 75643
L72092 75700
" />
<path d="M72373 75700
L72373 75109
" />
<path d="M72429 75475
L72598 75700
" />
<path d="M72598 75306
L72373 75531
" />
<path d="M72851 75700
L72851 75306
" />
<path d="M72851 75109
L72823 75137
L72851 75165
L72879 75137
L72851 75109
L72851 75165
" />
<path d="M73385 75672
L73329 75700
L73217 75700
L73160 75672
L73132 75643
L73104 75587
L73104 75419
L73132 75362
L73160 75334
L73217 75306
L73329 75306
L73385 75334
" />
<path d="M73892 75700
L73892 75390
L73863 75334
L73807 75306
L73695 75306
L73638 75334
" />
<path d="M73892 75672
L73835 75700
L73695 75700
L73638 75672
L73610 75615
L73610 75559
L73638 75503
L73695 75475
L73835 75475
L73892 75447
" />
<path d="M74426 75700
L74426 75109
" />
<path d="M74426 75672
L74370 75700
L74257 75700
L74201 75672
L74173 75643
L74145 75587
L74145 75419
L74173 75362
L74201 75334
L74257 75306
L74370 75306
L74426 75334
" />
<path d="M74566 75756
L75016 75756
" />
<path d="M75157 75306
L75157 75897
" />
<path d="M75157 75334
L75213 75306
L75326 75306
L75382 75334
L75410 75362
L75438 75419
L75438 75587
L75410 75643
L75382 75672
L75326 75700
L75213 75700
L75157 75672
" />
<path d="M75944 75672
L75888 75700
L75776 75700
L75719 75672
L75691 75643
L75663 75587
L75663 75419
L75691 75362
L75719 75334
L75776 75306
L75888 75306
L75944 75334
" />
<path d="M76197 75700
L76197 75109
" />
<path d="M76197 75334
L76254 75306
L76366 75306
L76422 75334
L76451 75362
L76479 75419
L76479 75587
L76451 75643
L76422 75672
L76366 75700
L76254 75700
L76197 75672
" />
</g>
<g style="fill:#000000; fill-opacity:0.0; 
stroke:#000000; stroke-width:39.3701; stroke-opacity:1; 
stroke-linecap:round; stroke-linejoin:round;">
</g>
<g style="fill:#000000; fill-opacity:0.0; 
stroke:#000000; stroke-width:59.0551; stroke-opacity:1; 
stroke-linecap:round; stroke-linejoin:round;">
<path d="M62755 73779
L105275 73779
" />
</g>
<g style="fill:#000000; fill-opacity:0.0; 
stroke:#000000; stroke-width:39.3701; stroke-opacity:1; 
stroke-linecap:round; stroke-linejoin:round;">
</g>
<g style="fill:#000000; fill-opacity:0.0; 
stroke:#000000; stroke-width:59.0551; stroke-opacity:1; 
stroke-linecap:round; stroke-linejoin:round;">
<path d="M63262 74609
L63346 74637
L63487 74637
L63543 74609
L63571 74580
L63599 74524
L63599 74468
L63571 74412
L63543 74384
L63487 74356
L63374 74327
L63318 74299
L63290 74271
L63262 74215
L63262 74159
L63290 74102
L63318 74074
L63374 74046
L63515 74046
L63599 74074
" />
<path d="M63852 74637
L63852 74046
" />
<path d="M64105 74637
L64105 74327
L64077 74271
L64021 74243
L63937 74243
L63880 74271
L63852 74299
" />
<path d="M64611 74609
L64555 74637
L64443 74637
L64386 74609
L64358 74552
L64358 74327
L64386 74271
L64443 74243
L64555 74243
L64611 74271
L64640 74327
L64640 74384
L64358 74440
" />
<path d="M65118 74609
L65061 74637
L64949 74637
L64893 74609
L64865 74552
L64865 74327
L64893 74271
L64949 74243
L65061 74243
L65118 74271
L65146 74327
L65146 74384
L64865 74440
" />
<path d="M65314 74243
L65539 74243
" />
<path d="M65399 74046
L65399 74552
L65427 74609
L65483 74637
L65539 74637
" />
<path d="M65736 74580
L65764 74609
L65736 74637
L65708 74609
L65736 74580
L65736 74637
" />
<path d="M65736 74271
L65764 74299
L65736 74327
L65708 74299
L65736 74271
L65736 74327
" />
</g>
<g style="fill:#000000; fill-opacity:0.0; 
stroke:#000000; stroke-width:39.3701; stroke-opacity:1; 
stroke-linecap:round; stroke-linejoin:round;">
</g>
<g style="fill:#000000; fill-opacity:0.0; 
stroke:#000000; stroke-width:118.11; stroke-opacity:1; 
stroke-linecap:round; stroke-linejoin:round;">
<path d="M63487 73146
L63290 73146
" />
<path d="M63290 73456
L63290 72865
L63571 72865
" />
<path d="M64049 73062
L64049 73456
" />
<path d="M63796 73062
L63796 73371
L63824 73428
L63880 73456
L63965 73456
L64021 73428
L64049 73399
" />
<path d="M64330 73062
L64330 73456
" />
<path d="M64330 73118
L64358 73090
L64415 73062
L64499 73062
L64555 73090
L64583 73146
L64583 73456
" />
<path d="M65118 73456
L65118 72865
" />
<path d="M65118 73428
L65061 73456
L64949 73456
L64893 73428
L64865 73399
L64836 73343
L64836 73174
L64865 73118
L64893 73090
L64949 73062
L65061 73062
L65118 73090
" />
<path d="M65652 73456
L65652 73146
L65624 73090
L65568 73062
L65455 73062
L65399 73090
" />
<path d="M65652 73428
L65596 73456
L65455 73456
L65399 73428
L65371 73371
L65371 73315
L65399 73259
L65455 73231
L65596 73231
L65652 73203
" />
<path d="M66186 73428
L66130 73456
L66017 73456
L65961 73428
L65933 73399
L65905 73343
L65905 73174
L65933 73118
L65961 73090
L66017 73062
L66130 73062
L66186 73090
" />
<path d="M66439 73456
L66439 73062
" />
<path d="M66439 72865
L66411 72893
L66439 72921
L66467 72893
L66439 72865
L66439 72921
" />
<path d="M66805 73456
L66749 73428
L66721 73399
L66692 73343
L66692 73174
L66721 73118
L66749 73090
L66805 73062
L66889 73062
L66946 73090
L66974 73118
L67002 73174
L67002 73343
L66974 73399
L66946 73428
L66889 73456
L66805 73456
" />
<path d="M66917 72837
L66833 72921
" />
<path d="M67255 73062
L67255 73456
" />
<path d="M67255 73118
L67283 73090
L67339 73062
L67424 73062
L67480 73090
L67508 73146
L67508 73456
" />
<path d="M68577 73399
L68548 73428
L68464 73456
L68408 73456
L68323 73428
L68267 73371
L68239 73315
L68211 73203
L68211 73118
L68239 73006
L68267 72949
L68323 72893
L68408 72865
L68464 72865
L68548 72893
L68577 72921
" />
<path d="M68830 73146
L69026 73146
" />
<path d="M69111 73456
L68830 73456
L68830 72865
L69111 72865
" />
<path d="M69364 73456
L69364 72865
L69701 73456
L69701 72865
" />
<path d="M69983 73456
L69983 72865
L70123 72865
L70208 72893
L70264 72949
L70292 73006
L70320 73118
L70320 73203
L70292 73315
L70264 73371
L70208 73428
L70123 73456
L69983 73456
" />
<path d="M70573 73456
L70573 72865
" />
<path d="M70770 72865
L71107 72865
" />
<path d="M70939 73456
L70939 72865
" />
<path d="M71304 73146
L71501 73146
" />
<path d="M71586 73456
L71304 73456
L71304 72865
L71586 72865
" />
<path d="M72120 73456
L71839 73456
L71839 72865
" />
</g>
<g style="fill:#000000; fill-opacity:0.0; 
stroke:#000000; stroke-width:39.3701; stroke-opacity:1; 
stroke-linecap:round; stroke-linejoin:round;">
</g>
<g style="fill:#000000; fill-opacity:0.0; 
stroke:#000000; stroke-width:59.0551; stroke-opacity:1; 
stroke-linecap:round; stroke-linejoin:round;">
<path d="M63290 72275
L63290 71684
" />
<path d="M63571 71881
L63571 72275
" />
<path d="M63571 71937
L63599 71909
L63655 71881
L63740 71881
L63796 71909
L63824 71965
L63824 72275
" />
<path d="M64358 71881
L64358 72359
L64330 72415
L64302 72443
L64246 72471
L64161 72471
L64105 72443
" />
<path d="M64358 72246
L64302 72275
L64190 72275
L64133 72246
L64105 72218
L64077 72162
L64077 71993
L64105 71937
L64133 71909
L64190 71881
L64302 71881
L64358 71909
" />
<path d="M64640 72218
L64668 72246
L64640 72275
L64611 72246
L64640 72218
L64640 72275
" />
<path d="M65539 71684
L65539 72106
L65511 72190
L65455 72246
L65371 72275
L65314 72275
" />
<path d="M65905 72275
L65849 72246
L65821 72218
L65793 72162
L65793 71993
L65821 71937
L65849 71909
L65905 71881
L65989 71881
L66046 71909
L66074 71937
L66102 71993
L66102 72162
L66074 72218
L66046 72246
L65989 72275
L65905 72275
" />
<path d="M66327 72246
L66383 72275
L66496 72275
L66552 72246
L66580 72190
L66580 72162
L66552 72106
L66496 72078
L66411 72078
L66355 72050
L66327 71993
L66327 71965
L66355 71909
L66411 71881
L66496 71881
L66552 71909
" />
<path d="M67058 72246
L67002 72275
L66889 72275
L66833 72246
L66805 72190
L66805 71965
L66833 71909
L66889 71881
L67002 71881
L67058 71909
L67086 71965
L67086 72021
L66805 72078
" />
<path d="M67339 72275
L67339 71881
" />
<path d="M67339 71937
L67367 71909
L67424 71881
L67508 71881
L67564 71909
L67592 71965
L67592 72275
" />
<path d="M67592 71965
L67620 71909
L67677 71881
L67761 71881
L67817 71909
L67845 71965
L67845 72275
" />
<path d="M68127 72275
L68127 71881
" />
<path d="M68127 71684
L68098 71712
L68127 71740
L68155 71712
L68127 71684
L68127 71740
" />
<path d="M68661 71881
L68661 72359
L68633 72415
L68605 72443
L68548 72471
L68464 72471
L68408 72443
" />
<path d="M68661 72246
L68605 72275
L68492 72275
L68436 72246
L68408 72218
L68380 72162
L68380 71993
L68408 71937
L68436 71909
L68492 71881
L68605 71881
L68661 71909
" />
<path d="M69195 71881
L69195 72275
" />
<path d="M68942 71881
L68942 72190
L68970 72246
L69026 72275
L69111 72275
L69167 72246
L69195 72218
" />
<path d="M69701 72246
L69645 72275
L69533 72275
L69476 72246
L69448 72190
L69448 71965
L69476 71909
L69533 71881
L69645 71881
L69701 71909
L69730 71965
L69730 72021
L69448 72078
" />
<path d="M70067 72275
L70011 72246
L69983 72190
L69983 71684
" />
<path d="M71079 72218
L71051 72246
L70967 72275
L70911 72275
L70826 72246
L70770 72190
L70742 72134
L70714 72021
L70714 71937
L70742 71825
L70770 71768
L70826 71712
L70911 71684
L70967 71684
L71051 71712
L71079 71740
" />
<path d="M71586 72275
L71586 71965
L71557 71909
L71501 71881
L71389 71881
L71332 71909
" />
<path d="M71586 72246
L71529 72275
L71389 72275
L71332 72246
L71304 72190
L71304 72134
L71332 72078
L71389 72050
L71529 72050
L71586 72021
" />
<path d="M71867 71881
L71867 72275
" />
<path d="M71867 71937
L71895 71909
L71951 71881
L72035 71881
L72092 71909
L72120 71965
L72120 72275
" />
<path d="M72626 72246
L72570 72275
L72457 72275
L72401 72246
L72373 72190
L72373 71965
L72401 71909
L72457 71881
L72570 71881
L72626 71909
L72654 71965
L72654 72021
L72373 72078
" />
<path d="M72992 72275
L72935 72246
L72907 72190
L72907 71684
" />
<path d="M73301 72275
L73245 72246
L73217 72218
L73188 72162
L73188 71993
L73217 71937
L73245 71909
L73301 71881
L73385 71881
L73442 71909
L73470 71937
L73498 71993
L73498 72162
L73470 72218
L73442 72246
L73385 72275
L73301 72275
" />
<path d="M73751 71881
L73751 72275
" />
<path d="M73751 71937
L73779 71909
L73835 71881
L73920 71881
L73976 71909
L74004 71965
L74004 72275
" />
<path d="M74510 72246
L74454 72275
L74341 72275
L74285 72246
L74257 72190
L74257 71965
L74285 71909
L74341 71881
L74454 71881
L74510 71909
L74538 71965
L74538 72021
L74257 72078
" />
<path d="M74763 72246
L74820 72275
L74932 72275
L74988 72246
L75016 72190
L75016 72162
L74988 72106
L74932 72078
L74848 72078
L74791 72050
L74763 71993
L74763 71965
L74791 71909
L74848 71881
L74932 71881
L74988 71909
" />
</g>
<g style="fill:#000000; fill-opacity:0.0; 
stroke:#000000; stroke-width:39.3701; stroke-opacity:1; 
stroke-linecap:round; stroke-linejoin:round;">
</g>
<g style="fill:#000000; fill-opacity:0.0; 
stroke:#000000; stroke-width:59.0551; stroke-opacity:1; 
stroke-linecap:round; stroke-linejoin:round;">
<path d="M70629 77716
L70629 78897
" />
</g>
<g style="fill:#000000; fill-opacity:0.0; 
stroke:#000000; stroke-width:39.3701; stroke-opacity:1; 
stroke-linecap:round; stroke-linejoin:round;">
</g>
<g style="fill:#000000; fill-opacity:0.0; 
stroke:#000000; stroke-width:59.0551; stroke-opacity:1; 
stroke-linecap:round; stroke-linejoin:round;">
<path d="M95826 77716
L95826 80275
" />
</g>
<g style="fill:#840000; fill-opacity:0.0; 
stroke:#840000; stroke-width:59.0551; stroke-opacity:1; 
stroke-linecap:round; stroke-linejoin:round;">
</g>
<g style="fill:#840000; fill-opacity:1.0; 
stroke:#840000; stroke-width:0; stroke-opacity:1; 
stroke-linecap:round; stroke-linejoin:round;">
<circle cx="46500" cy="35000" r="374.24" /> 
</g>
<g style="fill:#840000; fill-opacity:1.0; 
stroke:#840000; stroke-width:39.3701; stroke-opacity:1; 
stroke-linecap:round; stroke-linejoin:round;">
</g>
<g style="fill:#840000; fill-opacity:1.0; 
stroke:#840000; stroke-width:0; stroke-opacity:1; 
stroke-linecap:round; stroke-linejoin:round;">
<circle cx="45500" cy="35000" r="374.24" /> 
</g>
<g style="fill:#840000; fill-opacity:1.0; 
stroke:#840000; stroke-width:39.3701; stroke-opacity:1; 
stroke-linecap:round; stroke-linejoin:round;">
</g>
<g style="fill:#840000; fill-opacity:1.0; 
stroke:#840000; stroke-width:0; stroke-opacity:1; 
stroke-linecap:round; stroke-linejoin:round;">
<polyline style="fill-rule:evenodd;"
points="46972,32547
46972,33452
46027,33452
46027,32547
46972,32547
" /> 
<circle cx="46500" cy="32000" r="452.756" /> 
</g>
<g style="fill:#840000; fill-opacity:1.0; 
stroke:#840000; stroke-width:39.3701; stroke-opacity:1; 
stroke-linecap:round; stroke-linejoin:round;">
</g>
<g style="fill:#840000; fill-opacity:1.0; 
stroke:#840000; stroke-width:0; stroke-opacity:1; 
stroke-linecap:round; stroke-linejoin:round;">
<polyline style="fill-rule:evenodd;"
points="46972,29547
46972,30452
46027,30452
46027,29547
46972,29547
" /> 
<circle cx="46500" cy="29000" r="452.756" /> 
</g>
<g style="fill:#840000; fill-opacity:1.0; 
stroke:#840000; stroke-width:39.3701; stroke-opacity:1; 
stroke-linecap:round; stroke-linejoin:round;">
</g>
<g style="fill:#840000; fill-opacity:1.0; 
stroke:#840000; stroke-width:0; stroke-opacity:1; 
stroke-linecap:round; stroke-linejoin:round;">
<circle cx="41000" cy="33000" r="378.74" /> 
</g>
<g style="fill:#840000; fill-opacity:1.0; 
stroke:#840000; stroke-width:39.3701; stroke-opacity:1; 
stroke-linecap:round; stroke-linejoin:round;">
</g>
<g style="fill:#840000; fill-opacity:1.0; 
stroke:#840000; stroke-width:0; stroke-opacity:1; 
stroke-linecap:round; stroke-linejoin:round;">
<circle cx="40000" cy="33000" r="378.74" /> 
</g>
<g style="fill:#840000; fill-opacity:1.0; 
stroke:#840000; stroke-width:39.3701; stroke-opacity:1; 
stroke-linecap:round; stroke-linejoin:round;">
</g>
<g style="fill:#840000; fill-opacity:1.0; 
stroke:#840000; stroke-width:0; stroke-opacity:1; 
stroke-linecap:round; stroke-linejoin:round;">
<circle cx="40000" cy="32213" r="378.74" /> 
</g>
<g style="fill:#840000; fill-opacity:1.0; 
stroke:#840000; stroke-width:39.3701; stroke-opacity:1; 
stroke-linecap:round; stroke-linejoin:round;">
</g>
<g style="fill:#840000; fill-opacity:1.0; 
stroke:#840000; stroke-width:0; stroke-opacity:1; 
stroke-linecap:round; stroke-linejoin:round;">
<circle cx="41000" cy="32213" r="378.74" /> 
</g>
<g style="fill:#840000; fill-opacity:1.0; 
stroke:#840000; stroke-width:39.3701; stroke-opacity:1; 
stroke-linecap:round; stroke-linejoin:round;">
</g>
<g style="fill:#840000; fill-opacity:1.0; 
stroke:#840000; stroke-width:0; stroke-opacity:1; 
stroke-linecap:round; stroke-linejoin:round;">
<circle cx="42862" cy="31150" r="610.24" /> 
</g>
<g style="fill:#840000; fill-opacity:1.0; 
stroke:#840000; stroke-width:39.3701; stroke-opacity:1; 
stroke-linecap:round; stroke-linejoin:round;">
</g>
<g style="fill:#840000; fill-opacity:1.0; 
stroke:#840000; stroke-width:0; stroke-opacity:1; 
stroke-linecap:round; stroke-linejoin:round;">
<circle cx="38138" cy="31150" r="610.24" /> 
</g>
<g style="fill:#840000; fill-opacity:1.0; 
stroke:#840000; stroke-width:39.3701; stroke-opacity:1; 
stroke-linecap:round; stroke-linejoin:round;">
</g>
<g style="fill:#840000; fill-opacity:1.0; 
stroke:#840000; stroke-width:0; stroke-opacity:1; 
stroke-linecap:round; stroke-linejoin:round;">
<polyline style="fill-rule:evenodd;"
points="40418,35478
39581,35478
39581,34521
40418,34521
40418,35478
" /> 
</g>
<g style="fill:#840000; fill-opacity:1.0; 
stroke:#840000; stroke-width:837.48; stroke-opacity:1; 
stroke-linecap:round; stroke-linejoin:round;">
</g>
<g style="fill:#840000; fill-opacity:0.0; 
stroke:#840000; stroke-width:837.48; stroke-opacity:1; 
stroke-linecap:round; stroke-linejoin:round;">
<path d="M41000 35060
L41000 34940
" />
<path d="M42000 35060
L42000 34940
" />
</g>
<g style="fill:#840000; fill-opacity:0.0; 
stroke:#840000; stroke-width:0; stroke-opacity:1; 
stroke-linecap:round; stroke-linejoin:round;">
</g>
<g style="fill:#840000; fill-opacity:1.0; 
stroke:#840000; stroke-width:0; stroke-opacity:1; 
stroke-linecap:round; stroke-linejoin:round;">
<polyline style="fill-rule:evenodd;"
points="47478,52581
47478,53418
46521,53418
46521,52581
47478,52581
" /> 
</g>
<g style="fill:#840000; fill-opacity:1.0; 
stroke:#840000; stroke-width:837.48; stroke-opacity:1; 
stroke-linecap:round; stroke-linejoin:round;">
</g>
<g style="fill:#840000; fill-opacity:0.0; 
stroke:#840000; stroke-width:837.48; stroke-opacity:1; 
stroke-linecap:round; stroke-linejoin:round;">
<path d="M47060 52000
L46940 52000
" />
<path d="M47060 51000
L46940 51000
" />
<path d="M47060 50000
L46940 50000
" />
<path d="M47060 49000
L46940 49000
" />
<path d="M47060 48000
L46940 48000
" />
<path d="M47060 47000
L46940 47000
" />
<path d="M47060 46000
L46940 46000
" />
<path d="M47060 45000
L46940 45000
" />
<path d="M47060 44000
L46940 44000
" />
<path d="M47060 43000
L46940 43000
" />
<path d="M47060 42000
L46940 42000
" />
<path d="M47060 41000
L46940 41000
" />
<path d="M47060 40000
L46940 40000
" />
<path d="M47060 39000
L46940 39000
" />
<path d="M47060 38000
L46940 38000
" />
<path d="M47060 37000
L46940 37000
" />
</g>
<g style="fill:#840000; fill-opacity:0.0; 
stroke:#840000; stroke-width:0; stroke-opacity:1; 
stroke-linecap:round; stroke-linejoin:round;">
</g>
<g style="fill:#840000; fill-opacity:1.0; 
stroke:#840000; stroke-width:0; stroke-opacity:1; 
stroke-linecap:round; stroke-linejoin:round;">
<polyline style="fill-rule:evenodd;"
points="37521,37418
37521,36581
38478,36581
38478,37418
37521,37418
" /> 
</g>
<g style="fill:#840000; fill-opacity:1.0; 
stroke:#840000; stroke-width:837.48; stroke-opacity:1; 
stroke-linecap:round; stroke-linejoin:round;">
</g>
<g style="fill:#840000; fill-opacity:0.0; 
stroke:#840000; stroke-width:837.48; stroke-opacity:1; 
stroke-linecap:round; stroke-linejoin:round;">
<path d="M37940 38000
L38060 38000
" />
<path d="M37940 39000
L38060 39000
" />
<path d="M37940 40000
L38060 40000
" />
<path d="M37940 41000
L38060 41000
" />
<path d="M37940 42000
L38060 42000
" />
<path d="M37940 43000
L38060 43000
" />
<path d="M37940 44000
L38060 44000
" />
<path d="M37940 45000
L38060 45000
" />
<path d="M37940 46000
L38060 46000
" />
<path d="M37940 47000
L38060 47000
" />
<path d="M37940 48000
L38060 48000
" />
<path d="M37940 49000
L38060 49000
" />
<path d="M37940 50000
L38060 50000
" />
<path d="M37940 51000
L38060 51000
" />
<path d="M37940 52000
L38060 52000
" />
<path d="M37940 53000
L38060 53000
" />
</g>
<g style="fill:#840000; fill-opacity:1.0; 
stroke:#840000; stroke-width:0; stroke-opacity:1; 
stroke-linecap:round; stroke-linejoin:round;">
<circle cx="41000" cy="51500" r="353.74" /> 
</g>
<g style="fill:#840000; fill-opacity:1.0; 
stroke:#840000; stroke-width:39.3701; stroke-opacity:1; 
stroke-linecap:round; stroke-linejoin:round;">
</g>
<g style="fill:#840000; fill-opacity:1.0; 
stroke:#840000; stroke-width:0; stroke-opacity:1; 
stroke-linecap:round; stroke-linejoin:round;">
<circle cx="41000" cy="49500" r="353.74" /> 
</g>
<g style="fill:#840000; fill-opacity:1.0; 
stroke:#840000; stroke-width:39.3701; stroke-opacity:1; 
stroke-linecap:round; stroke-linejoin:round;">
</g>
<g style="fill:#840000; fill-opacity:1.0; 
stroke:#840000; stroke-width:0; stroke-opacity:1; 
stroke-linecap:round; stroke-linejoin:round;">
<circle cx="44000" cy="51500" r="353.74" /> 
</g>
<g style="fill:#840000; fill-opacity:1.0; 
stroke:#840000; stroke-width:39.3701; stroke-opacity:1; 
stroke-linecap:round; stroke-linejoin:round;">
</g>
<g style="fill:#840000; fill-opacity:1.0; 
stroke:#840000; stroke-width:0; stroke-opacity:1; 
stroke-linecap:round; stroke-linejoin:round;">
<circle cx="44000" cy="49500" r="353.74" /> 
</g>
<g style="fill:#840000; fill-opacity:1.0; 
stroke:#840000; stroke-width:39.3701; stroke-opacity:1; 
stroke-linecap:round; stroke-linejoin:round;">
</g>
<g style="fill:#840000; fill-opacity:1.0; 
stroke:#840000; stroke-width:0; stroke-opacity:1; 
stroke-linecap:round; stroke-linejoin:round;">
<circle cx="43441.3" cy="40590.6" r="374.24" /> 
</g>
<g style="fill:#840000; fill-opacity:1.0; 
stroke:#840000; stroke-width:39.3701; stroke-opacity:1; 
stroke-linecap:round; stroke-linejoin:round;">
</g>
<g style="fill:#840000; fill-opacity:1.0; 
stroke:#840000; stroke-width:0; stroke-opacity:1; 
stroke-linecap:round; stroke-linejoin:round;">
<circle cx="41519.3" cy="40590.6" r="374.24" /> 
</g>
<g style="fill:#840000; fill-opacity:1.0; 
stroke:#840000; stroke-width:39.3701; stroke-opacity:1; 
stroke-linecap:round; stroke-linejoin:round;">
</g>
<g style="fill:#840000; fill-opacity:1.0; 
stroke:#840000; stroke-width:0; stroke-opacity:1; 
stroke-linecap:round; stroke-linejoin:round;">
<circle cx="47000" cy="54500" r="472.24" /> 
</g>
<g style="fill:#840000; fill-opacity:1.0; 
stroke:#840000; stroke-width:39.3701; stroke-opacity:1; 
stroke-linecap:round; stroke-linejoin:round;">
</g> 
</svg>
